#qnt_4dfp -s effect_I 2ndvoxel
#$Id: qnt_4dfp.c,v 1.25 2017/09/16 00:37:20 avi Exp $
#Reading: 2ndvoxel.4dfp.img
#Threshold= 0.0000
#Reading: effect_I.4dfp.img
#Frame      Mean      Nvox
     1    0.0523         1
     2    0.0524         1
     3    0.0525         1
     4    0.0529         1
     5    0.0550         1
     6    0.0598         1
     7    0.0668         1
     8    0.0760         1
     9    0.0870         1
    10    0.0999         1
    11    0.1145         1
    12    0.1306         1
    13    0.1482         1
    14    0.1671         1
    15    0.1873         1
    16    0.2084         1
    17    0.2305         1
    18    0.2533         1
    19    0.3104         1
    20    0.3344         1
    21    0.3564         1
    22    0.3752         1
    23    0.3913         1
    24    0.4053         1
    25    0.4178         1
    26    0.4292         1
    27    0.4397         1
    28    0.4495         1
    29    0.4588         1
    30    0.4677         1
    31    0.4761         1
    32    0.4843         1
    33    0.4922         1
    34    0.4999         1
    35    0.5073         1
    36    0.5145         1
    37    0.5312         1
    38    0.5378         1
    39    0.5443         1
    40    0.5506         1
    41    0.5568         1
    42    0.5628         1
    43    0.5687         1
    44    0.5744         1
    45    0.5800         1
    46    0.5855         1
    47    0.5909         1
    48    0.5961         1
    49    0.6012         1
    50    0.6062         1
    51    0.6111         1
    52    0.6159         1
    53    0.6205         1
    54    0.6251         1
    55    0.6357         1
    56    0.6399         1
    57    0.6440         1
    58    0.6481         1
    59    0.6520         1
    60    0.6559         1
    61    0.6597         1
    62    0.6633         1
    63    0.6670         1
    64    0.6705         1
    65    0.6740         1
    66    0.6774         1
    67    0.6807         1
    68    0.6839         1
    69    0.6871         1
    70    0.6902         1
    71    0.6933         1
    72    0.6962         1
    73    0.7032         1
    74    0.7060         1
    75    0.7087         1
    76    0.7114         1
    77    0.7140         1
    78    0.7166         1
    79    0.7191         1
    80    0.7215         1
    81    0.7239         1
    82    0.7263         1
    83    0.7286         1
    84    0.7309         1
    85    0.7331         1
    86    0.7353         1
    87    0.7375         1
    88    0.7396         1
    89    0.7416         1
    90    0.7437         1
    91    0.7484         1
    92    0.7503         1
    93    0.7522         1
    94    0.7540         1
    95    0.7558         1
    96    0.7576         1
    97    0.7593         1
    98    0.7610         1
    99    0.7627         1
   100    0.7643         1
   101    0.7659         1
   102    0.7675         1
   103    0.7691         1
   104    0.7706         1
   105    0.7721         1
   106    0.7736         1
   107    0.7750         1
   108    0.7764         1
   109    0.7798         1
   110    0.7811         1
   111    0.7824         1
   112    0.7837         1
   113    0.7850         1
   114    0.7863         1
   115    0.7875         1
   116    0.7887         1
   117    0.7899         1
   118    0.7911         1
   119    0.7922         1
   120    0.7934         1
   121    0.7945         1
   122    0.7956         1
   123    0.7967         1
   124    0.7977         1
   125    0.7988         1
   126    0.7998         1
   127    0.8022         1
   128    0.8032         1
   129    0.8042         1
   130    0.8051         1
   131    0.8060         1
   132    0.8069         1
   133    0.8078         1
   134    0.8087         1
   135    0.8096         1
   136    0.8105         1
   137    0.8113         1
   138    0.8121         1
   139    0.8130         1
   140    0.8138         1
   141    0.8146         1
   142    0.8154         1
   143    0.8161         1
   144    0.8169         1
   145    0.8187         1
   146    0.8194         1
   147    0.8201         1
   148    0.8208         1
   149    0.8215         1
   150    0.8222         1
   151    0.8229         1
   152    0.8235         1
   153    0.8242         1
   154    0.8248         1
   155    0.8255         1
   156    0.8261         1
   157    0.8267         1
   158    0.8273         1
   159    0.8279         1
   160    0.8285         1
   161    0.8291         1
   162    0.8296         1
   163    0.8310         1
   164    0.8315         1
   165    0.8321         1
   166    0.8326         1
   167    0.8331         1
   168    0.8336         1
   169    0.8341         1
   170    0.8346         1
   171    0.8351         1
   172    0.8356         1
   173    0.8361         1
   174    0.8366         1
   175    0.8370         1
   176    0.8375         1
   177    0.8379         1
   178    0.8384         1
   179    0.8388         1
   180    0.8393         1
