"0.0 min","5.0 min","10.5 min","12.0 min","15.0 min","19.0 min","24.0 min","30.0 min","45.0 min","60.0 min","90.0 min","120.0 min"
71.0000,1984.8148,2699.4315,1870.7750,1282.2302,1129.9624,1079.7995,1038.7526,949.2361,873.1002,753.1894,666.3682
64.0000,1804.8336,2655.9428,2544.8285,1377.4156,1055.7754,983.4972,949.0864,880.4771,821.2683,725.5871,653.8276
64.0000,1913.0225,2401.3765,1486.2171,862.7979,709.3208,681.7948,671.5232,651.0908,632.5145,600.0912,573.0882
7.0000,1622.7006,2517.1934,2683.3381,1435.9905,1141.6959,1074.4172,1032.0764,942.3357,866.2262,746.7659,660.6749
103.0000,1934.3505,2530.8945,1720.2538,1063.8364,901.3802,864.8175,843.4443,797.5415,756.8937,688.8849,635.4058
17.0000,1951.4054,2263.9933,1470.7292,935.4163,802.4465,773.8141,758.2414,724.9883,695.2401,644.6919,604.0983
7.0000,1617.1140,2476.4693,2631.5121,1367.5363,1069.2178,1006.3976,970.9142,896.2484,832.1272,729.5762,653.7471
103.0000,1666.8964,2478.9254,2621.7312,1339.1826,1034.6100,973.8810,942.7208,877.6771,821.1087,728.8954,658.9103
23.0000,1602.8755,2317.9147,2426.9919,1091.9912,770.8414,719.4022,705.3346,680.0501,657.2901,618.0034,585.7732
13.0000,2046.7643,2537.5882,1823.5025,1355.1297,1224.3193,1167.4830,1114.9128,1000.7776,905.9208,761.5198,661.7350
90.0000,2557.3248,3187.0102,2285.1992,1408.4053,1027.2933,903.7086,860.6752,805.9545,760.6523,686.1435,628.8710
103.0000,1816.6850,2550.8742,2195.6861,1266.7060,1041.2974,989.4084,957.4187,888.9725,829.6139,733.3341,660.7592
7.0000,1992.7148,2216.8568,1502.1343,1023.4248,901.8705,869.6141,847.2210,798.2387,755.1617,683.8674,628.6279
38.0000,1633.9299,2478.4102,2629.5856,1359.7470,1059.4569,997.2803,963.1291,891.4051,829.5636,730.0631,655.8834
85.0000,2007.8120,2781.0213,1988.2515,1400.3122,1243.8143,1184.0284,1131.3314,1017.0189,921.5927,775.3702,673.4122
7.0000,2052.0574,2408.9713,1725.6748,1274.7891,1151.1515,1101.5523,1057.0590,959.8431,877.9278,750.6917,660.3023
85.0000,2032.6661,2532.7642,1751.2908,1234.3002,1098.5955,1052.7623,1014.8546,931.8073,860.7552,747.8820,665.1856
7.0000,1625.6229,2491.9351,2646.9998,1374.2381,1068.5055,1004.0335,968.5538,894.3414,830.6024,728.6191,653.1654
59.0000,1762.0884,2510.1430,2378.1027,1269.0524,1001.9794,948.1080,920.5515,862.7803,812.0137,727.9796,662.8550
90.0000,2211.6080,2472.6004,1696.6920,1095.0189,908.6928,860.9739,837.6839,791.5716,750.9719,683.2441,630.1993
13.0000,1896.2939,2671.5309,2074.4101,1317.8269,1122.7661,1066.7262,1025.6342,937.2785,862.2894,744.4983,659.5219
17.0000,1880.8236,2499.6688,1738.5421,1054.4792,886.3813,849.4142,828.3233,783.2454,743.4326,677.0719,625.1560
17.0000,1923.7373,3098.1019,3253.4338,1654.5106,977.9495,778.6071,729.3874,694.8106,668.6233,624.0517,588.1156
47.0000,1882.5890,2812.7489,2688.8103,1461.3011,1075.4207,981.9605,943.9484,874.8318,815.6024,720.1765,648.9024
0.0000,1823.2221,2467.6879,1854.9195,1070.6663,879.8233,840.3290,819.5698,775.7434,737.0181,672.3996,621.7718
71.0000,1637.5185,2372.5225,2471.4819,1165.5034,852.7486,799.5726,781.1244,745.3205,713.3714,659.1094,615.5617
103.0000,1729.8952,2724.3429,2918.0411,1688.0877,1380.4960,1291.4764,1224.7846,1083.9424,968.3885,795.6456,679.2235
13.0000,1596.7188,2304.3913,2410.6591,1071.1775,748.3742,697.3962,684.4355,661.8329,641.4407,606.0737,576.8722
38.0000,1751.6749,2447.3520,2127.9412,1142.8998,905.6962,859.4643,837.2772,791.1720,750.4731,682.6257,629.5368
90.0000,1704.7807,2633.1736,2806.1923,1545.4308,1232.2172,1154.8859,1104.8167,999.3098,910.5892,773.0390,675.5717
64.0000,1635.1698,2407.0277,2535.9315,1232.0370,921.4729,865.6297,842.6277,796.2328,755.2653,686.8701,633.2457
38.0000,1728.3361,2502.5240,2321.7664,1276.2771,1025.7257,971.3445,939.8948,873.2177,815.4735,721.9803,651.6783
109.0000,1859.1763,2551.4885,2048.0312,1210.1038,1005.3255,958.0529,929.0321,866.7835,812.4910,723.6840,655.9685
0.0000,1976.7068,2167.8035,1444.9551,958.4818,836.4153,807.4743,789.6128,750.8903,716.4779,658.6102,612.7919
20.0000,1636.5966,2418.7641,2477.1680,1237.8234,943.2122,888.0746,863.0725,811.7859,766.7843,692.4054,634.8817
23.0000,1617.4409,2419.7479,2557.0663,1266.1102,959.9969,902.6402,876.4303,822.6389,775.5463,697.9757,638.2613
20.0000,1707.0170,2466.0241,2301.3082,1231.5409,975.6830,923.4580,895.8907,838.0120,787.5301,704.8997,641.8351
71.0000,1989.3379,2134.1968,1400.6208,903.3286,779.2579,752.9453,739.0895,709.5693,682.9942,637.4066,600.3213
59.0000,1642.8012,2466.5358,2611.7505,1332.8682,1029.8543,969.2802,937.9445,872.5198,815.7480,723.5141,653.8345
38.0000,1612.4801,2338.9805,2452.3673,1124.2067,805.5057,753.2525,737.3750,707.7429,681.1707,635.6369,598.6492
59.0000,2028.9416,2276.6599,1568.0058,1094.6682,972.4975,936.4334,909.1442,849.1829,796.8927,711.4410,646.3673
38.0000,1608.2830,2311.1618,2416.8592,1076.5461,753.2980,702.1277,689.0231,666.0977,645.4039,609.4914,579.8142
64.0000,2070.2579,2403.5121,1715.0800,1259.4871,1135.6210,1087.9390,1045.9229,953.8707,875.7918,753.3330,665.1726
23.0000,1994.7839,2204.3981,1486.2711,1004.2515,882.3066,851.1723,830.3552,784.9131,744.7775,677.9205,625.6607
38.0000,1631.5906,2463.4245,2610.5987,1334.6985,1032.7748,972.0108,940.1522,873.5594,815.8874,722.4683,652.1784
0.0000,2195.1154,2859.8842,1897.8119,1063.1650,802.7775,746.1803,729.8942,704.4524,681.8058,642.7227,610.6674
17.0000,1893.6972,2633.9951,2320.1358,1148.1261,796.0532,725.2967,708.2729,684.1696,662.6782,625.2650,594.2159
64.0000,2012.6462,2217.7218,1498.8257,1015.8879,893.3989,861.8676,840.6423,794.2527,753.2517,684.8837,631.3692
47.0000,1660.2918,2429.2988,2452.4354,1235.0281,944.9802,890.4360,865.5697,814.4817,769.5946,695.2598,637.6175
20.0000,1885.7398,2420.1820,1561.7517,907.3975,746.8591,717.0016,704.6007,679.3431,656.5457,617.2220,584.9924
17.0000,1964.0704,2455.8319,1638.6646,1094.5823,957.0504,919.7873,893.3005,835.4811,785.0491,702.5945,639.7621
38.0000,1613.6262,2346.5472,2462.0169,1137.1324,819.6174,767.0163,750.3316,718.7687,690.5197,642.2785,603.2739
47.0000,1655.7127,2582.6697,2759.8353,1528.6495,1236.8929,1163.1347,1111.7235,1002.3373,910.7790,769.8557,670.9883
20.0000,2310.4936,2698.5957,1915.8882,1271.5323,1049.0997,981.9285,945.4128,873.9410,812.8579,715.2001,643.0225
13.0000,1614.6091,2435.3040,2578.2014,1295.7898,992.3315,933.5187,904.6689,844.8695,792.8265,707.8850,643.3101
23.0000,1615.1707,2404.0411,2537.0485,1239.4535,931.2807,875.1013,851.0202,802.1167,759.1072,687.7508,632.2792
90.0000,2032.9220,2254.4918,1539.7863,1060.6775,938.0238,904.1949,879.9553,826.7644,780.0172,702.7329,642.9412
7.0000,1597.8526,2332.6607,2447.5857,1121.7738,804.1231,752.0097,736.0378,706.1507,679.3860,633.6200,596.5515
13.0000,1604.4442,2361.4491,2483.8244,1169.7069,856.1600,802.6104,783.5435,746.3141,713.2116,657.3056,612.7796
109.0000,1652.4679,2390.3232,2509.9362,1191.6808,875.9933,821.6197,801.9910,763.5022,729.2015,671.0804,624.5823
90.0000,1660.1580,2413.8137,2495.0005,1220.0822,915.6213,860.8938,838.5205,793.4300,753.5233,686.6685,634.0046
90.0000,1714.6623,2491.5485,2438.7357,1293.0973,1019.3702,963.0455,932.8711,869.4357,814.2163,724.1011,655.6036
103.0000,1667.7998,2483.5710,2627.5475,1346.7773,1042.6953,981.5620,949.7357,883.1904,825.3905,731.3554,660.1797
47.0000,1627.9149,2411.7637,2543.9402,1245.0846,936.2823,879.8891,855.6788,806.4843,763.1881,691.2813,635.3025
85.0000,2020.5828,2220.8374,1500.9437,1016.9624,894.1644,862.6865,841.6006,795.5138,754.7339,686.6185,633.1779
17.0000,1873.3147,2569.3877,1904.6185,1188.9872,1012.1135,966.8846,936.0012,869.1991,811.4115,718.0595,648.0807
38.0000,1612.7757,2340.9328,2454.8573,1127.5430,809.1500,756.8092,740.7256,710.5996,683.5980,637.3691,599.8620
7.0000,1966.9506,2095.6911,1357.2525,855.0966,730.4331,705.8722,694.5395,670.9075,649.5062,612.4360,581.8803
71.0000,2335.4753,2896.3894,2020.8750,1269.7620,998.5793,921.4939,888.6272,830.8687,781.1102,699.7289,637.6820
20.0000,2631.7389,3198.0712,2342.3012,1486.6194,1096.2930,960.2111,908.3155,839.9678,784.3471,695.1960,629.0304
38.0000,2002.6499,2311.9684,1571.0323,1076.1751,949.7998,914.4452,888.7371,832.4027,783.1512,702.3554,640.5040
38.0000,1685.1918,2749.5425,2966.0326,1780.2829,1487.2925,1388.3698,1305.5285,1131.4629,992.3807,792.3646,664.5863
90.0000,2604.8820,2848.9149,2022.8545,1463.0775,1313.3274,1265.5917,1227.9154,1144.1014,1070.0082,946.4909,849.8414
59.0000,1645.1391,2480.3725,2629.2129,1355.8301,1054.3135,992.4732,959.0693,889.0024,828.4452,730.6605,657.4008
90.0000,1647.1807,2407.1846,2533.1807,1224.8168,912.5778,857.0262,834.8621,790.4248,751.0740,685.0829,633.0268
7.0000,1677.8005,2517.4518,2481.5140,1361.3531,1094.7147,1033.7830,995.7977,915.0597,846.0801,736.6328,656.5800
17.0000,1906.5228,2234.2834,1374.7410,786.2125,641.2363,616.8462,609.5183,595.8596,583.3579,561.2564,542.5285
17.0000,1614.3884,2305.9526,2350.8211,1052.7424,739.4398,689.9679,677.4988,655.8385,636.2718,602.2663,574.1097
23.0000,2109.1253,2383.0848,1678.9023,1208.4390,1083.4720,1041.4955,1007.0379,931.0444,865.2379,758.8297,678.9587
7.0000,1968.5489,2094.4447,1355.2429,852.2796,727.4062,702.9539,691.8206,668.6582,647.6636,611.2466,581.1721
38.0000,1976.9587,2125.7937,1392.8767,896.3378,772.6432,746.5365,732.8698,703.7901,677.6289,632.7933,596.3665
17.0000,1610.2650,2389.9151,2519.7563,1217.2584,907.5705,852.2954,829.8418,784.6998,744.8655,678.4221,626.3918
85.0000,1786.6076,2370.8138,1904.0777,968.8903,741.2227,702.9745,690.9758,668.3104,647.7744,612.0453,582.4181
109.0000,1857.2121,2516.0838,1978.7319,1147.6861,944.9164,901.2508,876.8768,825.0278,779.3731,703.6068,644.6844
23.0000,1648.0687,2509.7018,2659.6711,1363.1983,1041.2676,974.9882,941.9882,874.2317,815.7034,721.1791,650.3459
47.0000,1615.1609,2331.0400,2441.3213,1108.2876,787.7397,735.8579,721.0066,693.8513,669.4328,627.3795,592.9864
90.0000,1846.8395,2452.3876,1854.6899,1038.9953,840.1511,801.8932,784.4513,748.3633,716.1107,661.3292,617.3604
38.0000,1622.7009,2405.9860,2537.6895,1238.0948,929.1448,873.0364,849.2528,801.0401,758.5844,688.0088,632.9976
59.0000,1656.8514,2392.5459,2414.9312,1174.1857,877.3769,825.1677,805.0894,765.1320,729.6323,669.7906,622.2520
20.0000,2400.9821,2448.9919,1517.2548,872.8653,712.5984,686.9502,681.1316,671.5824,662.7468,646.7727,632.8213
59.0000,1926.3828,2287.7406,1425.7848,837.7027,692.6817,666.8004,657.3313,638.5832,621.5035,591.5948,566.5760
13.0000,1612.0311,2416.7028,2554.4663,1264.1887,958.3884,901.1009,874.9054,821.1461,774.1003,696.6530,637.0819
20.0000,1627.6422,2500.7488,2660.4808,1403.5367,1106.7777,1041.7933,1003.0592,921.1982,851.2760,740.3543,659.2443
109.0000,1791.3132,2700.8523,2612.7482,1583.2755,1331.5287,1254.7634,1193.7457,1063.2564,955.3531,792.2417,680.6124
90.0000,2025.5947,2677.2619,2011.1685,1157.2030,938.1167,899.7872,888.5816,868.2281,849.5045,816.0882,787.4075
17.0000,1617.4247,2440.7620,2584.6229,1303.6826,1000.6022,941.4007,911.9322,850.7319,797.5272,710.8353,645.0801
147.0000,2052.9483,2257.7864,1539.4987,1056.7557,933.2709,900.0141,876.7125,825.5847,780.4586,705.3781,646.7853
13.0000,2003.8397,2270.2533,1555.6773,1078.9031,956.4651,920.9590,894.4102,836.1622,785.3880,702.4637,639.3663
17.0000,2018.9244,2597.4589,1830.0897,1327.0514,1190.6170,1136.3146,1087.6931,981.9275,893.4156,757.2981,661.9148
103.0000,2053.4966,2304.1979,1596.5588,1123.8843,1001.0153,963.4848,934.4140,870.4535,814.7734,724.0232,655.1640
