k0,k1,k2,v1,v2,ts
0.080000,0.399983,0.072830,4600.000000,21424.589696,0.569009
0.080000,0.356878,0.058059,4600.000000,19460.644050,1.705551
0.080000,0.399907,0.039210,4594.147980,15200.000150,0.489563
0.080000,0.400000,0.071625,4600.000000,15200.000000,2.000000
0.080000,0.400000,0.052125,4600.000000,36071.203382,0.670359
0.080000,0.400000,0.046399,4600.000000,15200.000000,0.247177
0.080000,0.400000,0.065355,4600.000000,15200.000000,2.000000
0.080000,0.400000,0.060422,4600.000000,38225.783795,1.997323
0.080000,0.400000,0.041685,4600.000000,15200.000000,1.999999
0.080000,0.400000,0.082565,4600.000000,15200.000000,0.193965
0.080000,0.229577,0.037274,4581.270148,20150.146821,0.226816
0.080000,0.400000,0.062279,4600.000000,36456.561605,1.390461
0.080000,0.400000,0.054328,4600.000000,15200.000000,0.083396
0.080000,0.400000,0.064771,4600.000000,15200.000000,1.999999
0.079758,0.398161,0.084486,4600.000000,15200.000000,0.498329
0.080000,0.400000,0.075894,4600.000000,15200.000000,0.085856
0.080000,0.399752,0.070218,4581.773838,19502.387378,0.297753
0.080000,0.398996,0.065454,4600.000000,15200.000000,2.000000
0.080000,0.400000,0.055986,4600.000000,65698.921802,1.699352
0.080000,0.333440,0.045607,4600.000000,31197.171218,0.083333
0.080000,0.391184,0.070799,4600.000000,15200.000000,1.017402
0.080000,0.400000,0.052352,4600.000000,15200.000000,0.772647
0.080000,0.238122,0.029982,4600.000000,15200.000000,2.000000
0.080000,0.318150,0.053483,4600.000000,15200.000000,1.688692
0.080000,0.400000,0.051393,4600.000000,15200.000000,1.036936
0.080000,0.400000,0.047460,4600.000000,23401.055441,1.978319
0.080000,0.385882,0.088395,4600.000000,35679.926000,1.997372
0.080000,0.400000,0.039980,4600.000000,15200.000000,2.000000
0.080000,0.400000,0.053071,4600.000000,15200.000000,1.466562
0.080000,0.385756,0.075588,4600.000000,30980.478275,1.998294
0.080000,0.400000,0.053104,4600.000000,19542.911093,1.999486
0.080000,0.400000,0.062639,4600.000000,15200.000000,1.625468
0.080000,0.400000,0.059433,4600.000000,38965.790187,1.179427
0.080000,0.400000,0.049095,4600.000000,15200.000000,0.083335
0.080000,0.400000,0.055149,4600.000000,15200.000000,1.921539
0.080000,0.400000,0.056401,4600.000000,15200.000000,2.000000
0.080000,0.400000,0.058279,4600.000000,15200.000000,1.656073
0.080000,0.400000,0.044410,4600.000000,22029.365679,0.083333
0.080000,0.400000,0.062213,4600.000000,16918.503066,1.999800
0.080000,0.400000,0.044356,4600.000000,15200.000000,2.000000
0.080000,0.400000,0.060275,4600.000000,16668.453508,0.083333
0.080000,0.400000,0.040434,4600.000000,15200.000000,2.000000
0.080000,0.399988,0.074357,4600.000000,18547.148951,0.083333
0.080000,0.400000,0.052835,4600.000000,15200.000000,0.083341
0.080000,0.400000,0.062514,4600.000000,15200.000000,1.999998
0.079135,0.323228,0.035120,4413.828522,15200.000000,0.580356
0.079337,0.337668,0.035726,4549.303189,24816.230504,1.507466
0.080000,0.400000,0.053570,4600.000000,18797.524137,0.083333
0.080000,0.400000,0.055563,4600.000000,15200.000000,1.880955
0.080000,0.400000,0.041800,4600.000000,15200.000000,0.619194
0.080000,0.400000,0.058627,4600.000000,15200.000000,0.353652
0.080000,0.400000,0.045431,4600.000000,15200.000000,2.000000
0.080000,0.400000,0.080633,4600.000000,15200.000000,1.999993
0.080000,0.304029,0.052683,4600.000000,15200.000000,0.101199
0.080000,0.400000,0.058974,4600.000000,15200.000000,1.999999
0.080000,0.400000,0.054087,4600.000000,15200.000000,2.000000
0.080000,0.400000,0.056206,4600.000000,29537.347820,0.083333
0.080000,0.400000,0.044119,4600.000000,15200.000000,2.000000
0.080000,0.400000,0.048123,4600.000000,15200.000000,1.999994
0.080000,0.400000,0.047628,4600.000000,43568.962638,1.996659
0.080000,0.400000,0.051598,4600.000000,32786.852141,1.949539
0.080000,0.400000,0.060288,4600.000000,31484.272891,1.781886
0.080000,0.400000,0.061086,4600.000000,38138.478778,1.997335
0.080000,0.400000,0.054632,4600.000000,15200.000000,1.999997
0.080000,0.400000,0.052867,4600.000000,27633.848544,0.083333
0.080000,0.400000,0.062447,4600.000000,15200.000000,0.916340
0.080000,0.400000,0.044633,4600.000000,15200.000000,2.000000
0.080000,0.400000,0.041153,4600.000000,15200.000000,0.083668
0.080000,0.284406,0.045411,4591.122448,17371.932303,0.280526
0.080000,0.217448,0.039835,4600.000000,15200.000000,0.102368
0.080000,0.400000,0.058342,4600.000000,15200.000000,0.163370
0.080000,0.395338,0.104533,4600.000000,15200.000000,2.000000
0.078473,0.400000,0.056772,3934.207668,181100.000000,0.083333
0.080000,0.400000,0.064280,4600.000000,16899.941201,1.999802
0.080000,0.400000,0.051254,4600.000000,32955.787620,1.997907
0.080000,0.400000,0.067903,4600.000000,15200.000000,1.791876
0.080000,0.400000,0.034376,4600.000000,15200.000000,0.351544
0.080000,0.400000,0.039431,4600.000000,15200.000000,1.938496
0.079873,0.399980,0.064081,4599.999472,70176.177946,0.084036
0.080000,0.400000,0.040951,4600.000000,15200.000000,0.084113
0.080000,0.400000,0.044331,4600.000000,15200.000000,0.083334
0.080000,0.400000,0.052165,4600.000000,15200.000000,2.000000
0.080000,0.400000,0.039771,4600.000000,30283.265994,1.290618
0.080000,0.400000,0.054641,4600.000000,39458.201537,1.139723
0.080000,0.387876,0.061462,4600.000000,15200.000000,2.000000
0.080000,0.400000,0.043048,4600.000000,15200.000002,1.999991
0.080000,0.400000,0.047323,4600.000000,31403.561559,1.065372
0.080000,0.400000,0.054005,4600.000000,15200.000000,1.999993
0.080000,0.400000,0.050049,4600.000000,17028.506745,1.890858
0.079936,0.399991,0.027686,3785.991762,88160.031530,0.091196
0.080000,0.399961,0.038140,4597.646727,15200.001012,0.369670
0.080000,0.400000,0.056207,4600.000000,15200.000000,1.999998
0.080000,0.400000,0.068690,4600.000000,15200.000000,1.999999
0.080000,0.399926,0.087062,4600.000000,37609.510525,1.685792
0.059312,0.400000,0.042188,4450.270744,97978.580529,1.000376
0.080000,0.400000,0.059683,4600.000000,15200.000000,1.999998
0.080000,0.400000,0.053718,4600.000000,53659.090502,0.083333
0.080000,0.400000,0.058814,4600.000000,15200.000000,0.101123
0.080000,0.400000,0.079240,4600.000000,15200.000000,0.313036
0.080000,0.400000,0.060866,4600.000000,34598.481357,0.083333
