0.000000000000000000e+00,7.126119942906701532e-02
2.500000000000000000e-01,7.137236290467818822e-02
5.000000000000000000e-01,7.170453474590379739e-02
7.500000000000000000e-01,7.225631274536110926e-02
1.000000000000000000e+00,7.302702936539547107e-02
1.250000000000000000e+00,7.401670608501989546e-02
1.500000000000000000e+00,7.522600270865771599e-02
1.750000000000000000e+00,7.665616208979260382e-02
2.000000000000000000e+00,7.830895070348815878e-02
2.250000000000000000e+00,8.018659549721850188e-02
2.500000000000000000e+00,8.229171744109770037e-02
2.750000000000000000e+00,8.462726221256300363e-02
3.000000000000000000e+00,8.719642845388750341e-02
3.250000000000000000e+00,9.000259406814645202e-02
3.500000000000000000e+00,9.304924103577036365e-02
3.750000000000000000e+00,9.633987926361213538e-02
4.000000000000000000e+00,9.987797000990789043e-02
4.250000000000000000e+00,1.036668494534983276e-01
4.500000000000000000e+00,1.077096530103026778e-01
4.750000000000000000e+00,1.120092410236799285e-01
5.000000000000000000e+00,1.165681264783586801e-01
5.250000000000000000e+00,1.213884054033193549e-01
5.500000000000000000e+00,1.264716906389543316e-01
5.750000000000000000e+00,1.318190496421518254e-01
6.000000000000000000e+00,1.374309469894436364e-01
6.250000000000000000e+00,1.433071922213124683e-01
6.500000000000000000e+00,1.494468936300487050e-01
6.750000000000000000e+00,1.558484185464471816e-01
7.000000000000000000e+00,1.625093606270190394e-01
7.250000000000000000e+00,1.694265145611833223e-01
7.500000000000000000e+00,1.765958585417567173e-01
7.750000000000000000e+00,1.840125447483203502e-01
8.000000000000000000e+00,1.916708979843223803e-01
8.250000000000000000e+00,1.995644225128086480e-01
8.500000000000000000e+00,2.076858170113898006e-01
8.750000000000000000e+00,2.160269974649811631e-01
9.000000000000000000e+00,2.245791276945420523e-01
9.250000000000000000e+00,2.333326571171274733e-01
9.500000000000000000e+00,2.422773652301048186e-01
9.750000000000000000e+00,2.514024122186777066e-01
1.000000000000000000e+01,2.606963950052119117e-01
1.025000000000000000e+01,2.626333014041601355e-01
1.050000000000000000e+01,2.645671975302950618e-01
1.075000000000000000e+01,2.664980169463649906e-01
1.100000000000000000e+01,2.684256945533812777e-01
1.125000000000000000e+01,2.703501665754127758e-01
1.150000000000000000e+01,2.722713705470140577e-01
1.175000000000000000e+01,2.741892452966880334e-01
1.200000000000000000e+01,2.761037309348767232e-01
1.225000000000000000e+01,2.780147688370570025e-01
1.250000000000000000e+01,2.799223016302437306e-01
1.275000000000000000e+01,2.818262731789414888e-01
1.300000000000000000e+01,2.837266285711175784e-01
1.325000000000000000e+01,2.856233141021327082e-01
1.350000000000000000e+01,2.875162772618998774e-01
1.375000000000000000e+01,2.894054667205704368e-01
1.400000000000000000e+01,2.912908323131350730e-01
1.425000000000000000e+01,2.931723250261310532e-01
1.450000000000000000e+01,2.950498969832694995e-01
1.475000000000000000e+01,2.969235014314867138e-01
1.500000000000000000e+01,2.987930927263003911e-01
1.525000000000000000e+01,3.006586263183455565e-01
1.550000000000000000e+01,3.025200587392208873e-01
1.575000000000000000e+01,3.043773475873992607e-01
1.600000000000000000e+01,3.062304515142049155e-01
1.625000000000000000e+01,3.080793302119063659e-01
1.650000000000000000e+01,3.099239443962958918e-01
1.675000000000000000e+01,3.117642557969746431e-01
1.700000000000000000e+01,3.136002271417582810e-01
1.725000000000000000e+01,3.154318221433957126e-01
1.750000000000000000e+01,3.172590054865535025e-01
1.775000000000000000e+01,3.190817428141420886e-01
1.800000000000000000e+01,3.209000007144677258e-01
1.825000000000000000e+01,3.227137467082855093e-01
1.850000000000000000e+01,3.245229492348351563e-01
1.875000000000000000e+01,3.263275776396301064e-01
1.900000000000000000e+01,3.281276021615990302e-01
1.925000000000000000e+01,3.299229939205047812e-01
1.950000000000000000e+01,3.317137249033594304e-01
1.975000000000000000e+01,3.334997679525900094e-01
2.000000000000000000e+01,3.352810967542962928e-01
2.025000000000000000e+01,3.370576858236847828e-01
2.050000000000000000e+01,3.388295104953573667e-01
2.075000000000000000e+01,3.405965469093156783e-01
2.100000000000000000e+01,3.423587719994444778e-01
2.125000000000000000e+01,3.441161634822772486e-01
2.150000000000000000e+01,3.458686998438667004e-01
2.175000000000000000e+01,3.476163603287625858e-01
2.200000000000000000e+01,3.493591249290895484e-01
2.225000000000000000e+01,3.510969743710201652e-01
2.250000000000000000e+01,3.528298901053358305e-01
2.275000000000000000e+01,3.545578542952007028e-01
2.300000000000000000e+01,3.562808498049508943e-01
2.325000000000000000e+01,3.579988601893503430e-01
2.350000000000000000e+01,3.597118696818812911e-01
2.375000000000000000e+01,3.614198631852925114e-01
2.400000000000000000e+01,3.631228262586796429e-01
2.425000000000000000e+01,3.648207451091464160e-01
2.450000000000000000e+01,3.665136065798214604e-01
2.475000000000000000e+01,3.682013981390646062e-01
2.500000000000000000e+01,3.698841078719132258e-01
2.525000000000000000e+01,3.715617244682614118e-01
2.550000000000000000e+01,3.732342372132846919e-01
2.575000000000000000e+01,3.749016359774412499e-01
2.600000000000000000e+01,3.765639112067594718e-01
2.625000000000000000e+01,3.782210539125322457e-01
2.650000000000000000e+01,3.798730556627034072e-01
2.675000000000000000e+01,3.815199085710805904e-01
2.700000000000000000e+01,3.831616052882406143e-01
2.725000000000000000e+01,3.847981389932391694e-01
2.750000000000000000e+01,3.864295033828080150e-01
2.775000000000000000e+01,3.880556926632834358e-01
2.800000000000000000e+01,3.896767015410712576e-01
2.825000000000000000e+01,3.912925252139182186e-01
2.850000000000000000e+01,3.929031593633239838e-01
2.875000000000000000e+01,3.945086001429127798e-01
2.900000000000000000e+01,3.961088441727900755e-01
2.925000000000000000e+01,3.977038885296832471e-01
2.950000000000000000e+01,3.992937307385725498e-01
2.975000000000000000e+01,4.008783687649404293e-01
3.000000000000000000e+01,4.024578010066077738e-01
3.025000000000000000e+01,4.040320262846525123e-01
3.050000000000000000e+01,4.056010438369920812e-01
3.075000000000000000e+01,4.071648533095068023e-01
3.100000000000000000e+01,4.087234547484623892e-01
3.125000000000000000e+01,4.102768485928630082e-01
3.150000000000000000e+01,4.118250356674093560e-01
3.175000000000000000e+01,4.133680171743753795e-01
3.200000000000000000e+01,4.149057946865975510e-01
3.225000000000000000e+01,4.164383701402247229e-01
3.250000000000000000e+01,4.179657458275658488e-01
3.275000000000000000e+01,4.194879243898668730e-01
3.300000000000000000e+01,4.210049088108533955e-01
3.325000000000000000e+01,4.225167024087003176e-01
3.350000000000000000e+01,4.240233088307637233e-01
3.375000000000000000e+01,4.255247320460717741e-01
3.400000000000000000e+01,4.270209763392399660e-01
3.425000000000000000e+01,4.285120463026610982e-01
3.450000000000000000e+01,4.299979468319256037e-01
3.475000000000000000e+01,4.314786831186855909e-01
3.500000000000000000e+01,4.329542606441114660e-01
3.525000000000000000e+01,4.344246851732567749e-01
3.550000000000000000e+01,4.358899627486915729e-01
3.575000000000000000e+01,4.373500996852018874e-01
3.600000000000000000e+01,4.388051025626224511e-01
3.625000000000000000e+01,4.402549782216830798e-01
3.650000000000000000e+01,4.416997337573371207e-01
3.675000000000000000e+01,4.431393765129919560e-01
3.700000000000000000e+01,4.445739140757881680e-01
3.725000000000000000e+01,4.460033542705084120e-01
3.750000000000000000e+01,4.474277051545360040e-01
3.775000000000000000e+01,4.488469750120916979e-01
3.800000000000000000e+01,4.502611723498309293e-01
3.825000000000000000e+01,4.516703058913965618e-01
3.850000000000000000e+01,4.530743845715802798e-01
3.875000000000000000e+01,4.544734175327833636e-01
3.900000000000000000e+01,4.558674141190131035e-01
3.925000000000000000e+01,4.572563838716990348e-01
3.950000000000000000e+01,4.586403365243204022e-01
3.975000000000000000e+01,4.600192819986823611e-01
4.000000000000000000e+01,4.613932303993764639e-01
4.025000000000000000e+01,4.627621920097310659e-01
4.050000000000000000e+01,4.641261772873577218e-01
4.075000000000000000e+01,4.654851968596154244e-01
4.100000000000000000e+01,4.668392615194543183e-01
4.125000000000000000e+01,4.681883822213279145e-01
4.150000000000000000e+01,4.695325700763995913e-01
4.175000000000000000e+01,4.708718363493628045e-01
4.200000000000000000e+01,4.722061924534742272e-01
4.225000000000000000e+01,4.735356499470430580e-01
4.250000000000000000e+01,4.748602205295200385e-01
4.275000000000000000e+01,4.761799160378033524e-01
4.300000000000000000e+01,4.774947484423018307e-01
4.325000000000000000e+01,4.788047298430619936e-01
4.350000000000000000e+01,4.801098724658089401e-01
4.375000000000000000e+01,4.814101886598614044e-01
4.400000000000000000e+01,4.827056908926252166e-01
4.425000000000000000e+01,4.839963917471762911e-01
4.450000000000000000e+01,4.852823039188378651e-01
4.475000000000000000e+01,4.865634402116679191e-01
4.500000000000000000e+01,4.878398135351530995e-01
4.525000000000000000e+01,4.891114369008120466e-01
4.550000000000000000e+01,4.903783234192991558e-01
4.575000000000000000e+01,4.916404862974135259e-01
4.600000000000000000e+01,4.928979388339768675e-01
4.625000000000000000e+01,4.941506944185786732e-01
4.650000000000000000e+01,4.953987665263819840e-01
4.675000000000000000e+01,4.966421687177021704e-01
4.700000000000000000e+01,4.978809146330692714e-01
4.725000000000000000e+01,4.991150179909957241e-01
4.750000000000000000e+01,5.003444925857850611e-01
4.775000000000000000e+01,5.015693522849455910e-01
4.800000000000000000e+01,5.027896110244807204e-01
4.825000000000000000e+01,5.040052828094524484e-01
4.850000000000000000e+01,5.052163817084985853e-01
4.875000000000000000e+01,5.064229218528910614e-01
4.900000000000000000e+01,5.076249174338967052e-01
4.925000000000000000e+01,5.088223826997582133e-01
4.950000000000000000e+01,5.100153319540094987e-01
4.975000000000000000e+01,5.112037795526876982e-01
5.000000000000000000e+01,5.123877399015944745e-01
5.025000000000000000e+01,5.135672274550209249e-01
5.050000000000000000e+01,5.147422567130893745e-01
5.075000000000000000e+01,5.159128422194229069e-01
5.100000000000000000e+01,5.170789985589996363e-01
5.125000000000000000e+01,5.182407403559061709e-01
5.150000000000000000e+01,5.193980822716923740e-01
5.175000000000000000e+01,5.205510390036190982e-01
5.200000000000000000e+01,5.216996252812716728e-01
5.225000000000000000e+01,5.228438558667000136e-01
5.250000000000000000e+01,5.239837455502749375e-01
5.275000000000000000e+01,5.251193091506181077e-01
5.300000000000000000e+01,5.262505615113735047e-01
5.325000000000000000e+01,5.273775175011948813e-01
5.350000000000000000e+01,5.285001920094938299e-01
5.375000000000000000e+01,5.296185999467701855e-01
5.400000000000000000e+01,5.307327562424906109e-01
5.425000000000000000e+01,5.318426758426005874e-01
5.450000000000000000e+01,5.329483737085721762e-01
5.475000000000000000e+01,5.340498648156631889e-01
5.500000000000000000e+01,5.351471641514800037e-01
5.525000000000000000e+01,5.362402867143012397e-01
5.550000000000000000e+01,5.373292475112989575e-01
5.575000000000000000e+01,5.384140615574655175e-01
5.600000000000000000e+01,5.394947438745636425e-01
5.625000000000000000e+01,5.405713094881013925e-01
5.650000000000000000e+01,5.416437734280821203e-01
5.675000000000000000e+01,5.427121507260388444e-01
5.700000000000000000e+01,5.437764564145010082e-01
5.725000000000000000e+01,5.448367055250264990e-01
5.750000000000000000e+01,5.458929130882440584e-01
5.775000000000000000e+01,5.469450941304905278e-01
5.800000000000000000e+01,5.479932636748270358e-01
5.825000000000000000e+01,5.490374367383903387e-01
5.850000000000000000e+01,5.500776283316154425e-01
5.875000000000000000e+01,5.511138534574779868e-01
5.900000000000000000e+01,5.521461271095885470e-01
5.925000000000000000e+01,5.531744642717449922e-01
5.950000000000000000e+01,5.541988799167264501e-01
5.975000000000000000e+01,5.552193890051113634e-01
6.000000000000000000e+01,5.562360064841217477e-01
6.025000000000000000e+01,5.572487472871323622e-01
6.050000000000000000e+01,5.582576263322992505e-01
6.075000000000000000e+01,5.592626585210913603e-01
6.100000000000000000e+01,5.602638587388821811e-01
6.125000000000000000e+01,5.612612418524989266e-01
6.150000000000000000e+01,5.622548227100917506e-01
6.175000000000000000e+01,5.632446161398765305e-01
6.200000000000000000e+01,5.642306369496583596e-01
6.225000000000000000e+01,5.652128999259937725e-01
6.250000000000000000e+01,5.661914198328709125e-01
6.275000000000000000e+01,5.671662114112913100e-01
6.300000000000000000e+01,5.681372893789891076e-01
6.325000000000000000e+01,5.691046684281741985e-01
6.350000000000000000e+01,5.700683632266613232e-01
6.375000000000000000e+01,5.710283884158995349e-01
6.400000000000000000e+01,5.719847586103945503e-01
6.425000000000000000e+01,5.729374883975146826e-01
6.450000000000000000e+01,5.738865923366940347e-01
6.475000000000000000e+01,5.748320849585314418e-01
6.500000000000000000e+01,5.757739807640319674e-01
6.525000000000000000e+01,5.767122942242320915e-01
6.550000000000000000e+01,5.776470397799575718e-01
6.575000000000000000e+01,5.785782318407446390e-01
6.600000000000000000e+01,5.795058847840253158e-01
6.625000000000000000e+01,5.804300129554158527e-01
6.650000000000000000e+01,5.813506306674448565e-01
6.675000000000000000e+01,5.822677521991463934e-01
6.700000000000000000e+01,5.831813917960239069e-01
6.725000000000000000e+01,5.840915636690676704e-01
6.750000000000000000e+01,5.849982819942678436e-01
6.775000000000000000e+01,5.859015609123804369e-01
6.800000000000000000e+01,5.868014145283455552e-01
6.825000000000000000e+01,5.876978569109587713e-01
6.850000000000000000e+01,5.885909020920816470e-01
6.875000000000000000e+01,5.894805640668103752e-01
6.900000000000000000e+01,5.903668567925922650e-01
6.925000000000000000e+01,5.912497941888310571e-01
6.950000000000000000e+01,5.921293901372025603e-01
6.975000000000000000e+01,5.930056584798767405e-01
7.000000000000000000e+01,5.938786130206765712e-01
7.025000000000000000e+01,5.947482675237912852e-01
7.050000000000000000e+01,5.956146357140172931e-01
7.075000000000000000e+01,5.964777312758506866e-01
7.100000000000000000e+01,5.973375678534001976e-01
7.125000000000000000e+01,5.981941590501964612e-01
7.150000000000000000e+01,5.990475184291214061e-01
7.175000000000000000e+01,5.998976595114333676e-01
7.200000000000000000e+01,6.007445957770629619e-01
7.225000000000000000e+01,6.015883406642306142e-01
7.250000000000000000e+01,6.024289075688477046e-01
7.275000000000000000e+01,6.032663098454004169e-01
7.300000000000000000e+01,6.041005608047853581e-01
7.325000000000000000e+01,6.049316737154405432e-01
7.350000000000000000e+01,6.057596618037934810e-01
7.375000000000000000e+01,6.065845382517993656e-01
7.400000000000000000e+01,6.074063161989849968e-01
7.425000000000000000e+01,6.082250087406820827e-01
7.450000000000000000e+01,6.090406289289579389e-01
7.475000000000000000e+01,6.098531897718767469e-01
7.500000000000000000e+01,6.106627042331063127e-01
7.525000000000000000e+01,6.114691852325304655e-01
7.550000000000000000e+01,6.122726456454261612e-01
7.575000000000000000e+01,6.130730983019880842e-01
7.600000000000000000e+01,6.138705559886157292e-01
7.625000000000000000e+01,6.146650314465670339e-01
7.650000000000000000e+01,6.154565373718341448e-01
7.675000000000000000e+01,6.162450864157874575e-01
7.700000000000000000e+01,6.170306911840801600e-01
7.725000000000000000e+01,6.178133642376285595e-01
7.750000000000000000e+01,6.185931180919650441e-01
7.775000000000000000e+01,6.193699652166053671e-01
7.800000000000000000e+01,6.201439180357180003e-01
7.825000000000000000e+01,6.209149889283601675e-01
7.850000000000000000e+01,6.216831902273268762e-01
7.875000000000000000e+01,6.224485342196193205e-01
7.900000000000000000e+01,6.232110331465930964e-01
7.925000000000000000e+01,6.239706992035776167e-01
7.950000000000000000e+01,6.247275445402471483e-01
7.975000000000000000e+01,6.254815812597245284e-01
8.000000000000000000e+01,6.262328214194915477e-01
8.025000000000000000e+01,6.269812770309259875e-01
8.050000000000000000e+01,6.277269600591643961e-01
8.075000000000000000e+01,6.284698824233883041e-01
8.100000000000000000e+01,6.292100559962778838e-01
8.125000000000000000e+01,6.299474926048294066e-01
8.150000000000000000e+01,6.306822040292975329e-01
8.175000000000000000e+01,6.314142020042275982e-01
8.200000000000000000e+01,6.321434982177223105e-01
8.225000000000000000e+01,6.328701043117521685e-01
8.250000000000000000e+01,6.335940318819534012e-01
8.275000000000000000e+01,6.343152924780469659e-01
8.300000000000000000e+01,6.350338976033357286e-01
8.325000000000000000e+01,6.357498587154376546e-01
8.350000000000000000e+01,6.364631872248740496e-01
8.375000000000000000e+01,6.371738944973389662e-01
8.400000000000000000e+01,6.378819918512796949e-01
8.425000000000000000e+01,6.385874905599622231e-01
8.450000000000000000e+01,6.392904018502856278e-01
8.475000000000000000e+01,6.399907369029244064e-01
8.500000000000000000e+01,6.406885068531752436e-01
8.525000000000000000e+01,6.413837227902943194e-01
8.550000000000000000e+01,6.420763957570470026e-01
8.575000000000000000e+01,6.427665367518592410e-01
8.600000000000000000e+01,6.434541567258718064e-01
8.625000000000000000e+01,6.441392665855940614e-01
8.650000000000000000e+01,6.448218771914675518e-01
8.675000000000000000e+01,6.455019993586247340e-01
8.700000000000000000e+01,6.461796438567550815e-01
8.725000000000000000e+01,6.468548214100741101e-01
8.750000000000000000e+01,6.475275426971991433e-01
8.775000000000000000e+01,6.481978183517150827e-01
8.800000000000000000e+01,6.488656589625397819e-01
8.825000000000000000e+01,6.495310750727313343e-01
8.850000000000000000e+01,6.501940771806460351e-01
8.875000000000000000e+01,6.508546757397271065e-01
8.900000000000000000e+01,6.515128811585898516e-01
8.925000000000000000e+01,6.521687038012052851e-01
8.950000000000000000e+01,6.528221539866042589e-01
8.975000000000000000e+01,6.534732419895481481e-01
9.000000000000000000e+01,6.541219780403321193e-01
