0.000000000000000000e+00,7.359942142738465007e-23
2.500000000000000000e-01,8.133763624481210482e-23
5.000000000000000000e-01,1.091545160346968074e-22
7.500000000000000000e-01,1.755983949013837173e-22
1.000000000000000000e+00,3.327599781163862986e-22
1.250000000000000000e+00,7.277306363257374611e-22
1.500000000000000000e+00,1.796907960461740741e-21
1.750000000000000000e+00,4.900973189512305864e-21
2.000000000000000000e+00,1.446091103251070889e-20
2.250000000000000000e+00,4.529049547969612482e-20
2.500000000000000000e+00,1.480531645157965133e-19
2.750000000000000000e+00,4.979078579039610876e-19
3.000000000000000000e+00,1.701853339143059608e-18
3.250000000000000000e+00,5.853104173357345081e-18
3.500000000000000000e+00,2.009181312279089094e-17
3.750000000000000000e+00,6.839396146889169637e-17
4.000000000000000000e+00,2.297152888151267527e-16
4.250000000000000000e+00,7.583212191251151358e-16
4.500000000000000000e+00,2.453269449274268305e-15
4.750000000000000000e+00,7.761497713408058989e-15
5.000000000000000000e+00,2.397780000044163041e-14
5.250000000000000000e+00,7.226240462127907693e-14
5.500000000000000000e+00,2.123270666702622447e-13
5.750000000000000000e+00,6.081017824906404826e-13
6.000000000000000000e+00,1.697541509117309023e-12
6.250000000000000000e+00,4.619719784413201372e-12
6.500000000000000000e+00,1.226034869094655264e-11
6.750000000000000000e+00,3.174461156020201236e-11
7.000000000000000000e+00,8.023057459303191386e-11
7.250000000000000000e+00,1.980431466314258540e-10
7.500000000000000000e+00,4.777424940437732103e-10
7.750000000000000000e+00,1.126981359821151588e-09
8.000000000000000000e+00,2.601409746695791824e-09
8.250000000000000000e+00,5.879660375068335104e-09
8.500000000000000000e+00,1.302052330981602975e-08
8.750000000000000000e+00,2.826932238155901749e-08
9.000000000000000000e+00,6.021244247091905660e-08
9.250000000000000000e+00,1.258948445977997427e-07
9.500000000000000000e+00,2.585475447197617276e-07
9.750000000000000000e+00,5.218382305423730941e-07
1.000000000000000000e+01,1.035710808477027907e-06
1.025000000000000000e+01,1.088437318382455582e-06
1.050000000000000000e+01,1.143204006750105319e-06
1.075000000000000000e+01,1.200059779687819823e-06
1.100000000000000000e+01,1.259053596503909386e-06
1.125000000000000000e+01,1.320234433272995275e-06
1.150000000000000000e+01,1.383651246199528086e-06
1.175000000000000000e+01,1.449352934821286104e-06
1.200000000000000000e+01,1.517388305111828575e-06
1.225000000000000000e+01,1.587806032526894867e-06
1.250000000000000000e+01,1.660654625047575597e-06
1.275000000000000000e+01,1.735982386270552737e-06
1.300000000000000000e+01,1.813837378591155265e-06
1.325000000000000000e+01,1.894267386531568524e-06
1.350000000000000000e+01,1.977319880258800556e-06
1.375000000000000000e+01,2.063041979338895244e-06
1.400000000000000000e+01,2.151480416775302140e-06
1.425000000000000000e+01,2.242681503373726674e-06
1.450000000000000000e+01,2.336691092477613383e-06
1.475000000000000000e+01,2.433554545115921593e-06
1.500000000000000000e+01,2.533316695604741348e-06
1.525000000000000000e+01,2.636021817643382182e-06
1.550000000000000000e+01,2.741713590940611775e-06
1.575000000000000000e+01,2.850435068411184100e-06
1.600000000000000000e+01,2.962228643974812126e-06
1.625000000000000000e+01,3.077136020996591384e-06
1.650000000000000000e+01,3.195198181395726160e-06
1.675000000000000000e+01,3.316455355457541652e-06
1.700000000000000000e+01,3.440946992377165724e-06
1.725000000000000000e+01,3.568711731564584852e-06
1.750000000000000000e+01,3.699787374733470255e-06
1.775000000000000000e+01,3.834210858803829888e-06
1.800000000000000000e+01,3.972018229637696585e-06
1.825000000000000000e+01,4.113244616632541249e-06
1.850000000000000000e+01,4.257924208187217222e-06
1.875000000000000000e+01,4.406090228072305025e-06
1.900000000000000000e+01,4.557774912699751976e-06
1.925000000000000000e+01,4.713009489331702794e-06
1.950000000000000000e+01,4.871824155222304799e-06
1.975000000000000000e+01,5.034248057717913108e-06
2.000000000000000000e+01,5.200309275320456149e-06
2.025000000000000000e+01,5.370034799723134012e-06
2.050000000000000000e+01,5.543450518828188818e-06
2.075000000000000000e+01,5.720581200755034484e-06
2.100000000000000000e+01,5.901450478835715198e-06
2.125000000000000000e+01,6.086080837611661866e-06
2.150000000000000000e+01,6.274493599823005154e-06
2.175000000000000000e+01,6.466708914403685949e-06
2.200000000000000000e+01,6.662745745468301639e-06
2.225000000000000000e+01,6.862621862300100440e-06
2.250000000000000000e+01,7.066353830325997815e-06
2.275000000000000000e+01,7.273957003090346368e-06
2.300000000000000000e+01,7.485445515201706053e-06
2.325000000000000000e+01,7.700832276263180556e-06
2.350000000000000000e+01,7.920128965769533376e-06
2.375000000000000000e+01,8.143346028965009519e-06
2.400000000000000000e+01,8.370492673651534085e-06
2.425000000000000000e+01,8.601576867937815388e-06
2.450000000000000000e+01,8.836605338914571870e-06
2.475000000000000000e+01,9.075583572245864120e-06
2.500000000000000000e+01,9.318515812666225282e-06
2.525000000000000000e+01,9.565405065361067262e-06
2.550000000000000000e+01,9.816253098222568334e-06
2.575000000000000000e+01,1.007106044496434711e-05
2.600000000000000000e+01,1.032982640907329646e-05
2.625000000000000000e+01,1.059254906859158933e-05
2.650000000000000000e+01,1.085922528169797193e-05
2.675000000000000000e+01,1.112985069308637927e-05
2.700000000000000000e+01,1.140441974110712591e-05
2.725000000000000000e+01,1.168292566566312835e-05
2.750000000000000000e+01,1.196536051683611401e-05
2.775000000000000000e+01,1.225171516422603191e-05
2.800000000000000000e+01,1.254197930698041570e-05
2.825000000000000000e+01,1.283614148449518980e-05
2.850000000000000000e+01,1.313418908776834134e-05
2.875000000000000000e+01,1.343610837137377443e-05
2.900000000000000000e+01,1.374188446605545002e-05
2.925000000000000000e+01,1.405150139190161630e-05
2.950000000000000000e+01,1.436494207207928020e-05
2.975000000000000000e+01,1.468218834712206421e-05
3.000000000000000000e+01,1.500322098973418740e-05
3.025000000000000000e+01,1.532801972009026237e-05
3.050000000000000000e+01,1.565656322161954747e-05
3.075000000000000000e+01,1.598882915724904200e-05
3.100000000000000000e+01,1.632479418606924901e-05
3.125000000000000000e+01,1.666443398042042912e-05
3.150000000000000000e+01,1.700772324337668524e-05
3.175000000000000000e+01,1.735463572658483902e-05
3.200000000000000000e+01,1.770514424846173428e-05
3.225000000000000000e+01,1.805922071272040278e-05
3.250000000000000000e+01,1.841683612719509697e-05
3.275000000000000000e+01,1.877796062295724477e-05
3.300000000000000000e+01,1.914256347369739300e-05
3.325000000000000000e+01,1.951061311534841626e-05
3.350000000000000000e+01,1.988207716593573407e-05
3.375000000000000000e+01,2.025692244563094804e-05
3.400000000000000000e+01,2.063511499699634600e-05
3.425000000000000000e+01,2.101662010538760827e-05
3.450000000000000000e+01,2.140140231951022663e-05
3.475000000000000000e+01,2.178942547210757253e-05
3.500000000000000000e+01,2.218065270075004686e-05
3.525000000000000000e+01,2.257504646872385092e-05
3.550000000000000000e+01,2.297256858600329861e-05
3.575000000000000000e+01,2.337318023026312884e-05
3.600000000000000000e+01,2.377684196795284792e-05
3.625000000000000000e+01,2.418351377537941347e-05
3.650000000000000000e+01,2.459315505981347265e-05
3.675000000000000000e+01,2.500572468058292881e-05
3.700000000000000000e+01,2.542118097014985201e-05
3.725000000000000000e+01,2.583948175514077570e-05
3.750000000000000000e+01,2.626058437734691013e-05
3.775000000000000000e+01,2.668444571464384019e-05
3.800000000000000000e+01,2.711102220184074001e-05
3.825000000000000000e+01,2.754026985143966981e-05
3.850000000000000000e+01,2.797214427428779777e-05
3.875000000000000000e+01,2.840660070012749673e-05
3.900000000000000000e+01,2.884359399800213696e-05
3.925000000000000000e+01,2.928307869653341123e-05
3.950000000000000000e+01,2.972500900405546377e-05
3.975000000000000000e+01,3.016933882857403588e-05
4.000000000000000000e+01,3.061602179757312516e-05
4.025000000000000000e+01,3.106501127763191964e-05
4.050000000000000000e+01,3.151626039385133240e-05
4.075000000000000000e+01,3.196972204909380607e-05
4.100000000000000000e+01,3.242534894300652426e-05
4.125000000000000000e+01,3.288309359084429971e-05
4.150000000000000000e+01,3.334290834204839491e-05
4.175000000000000000e+01,3.380474539862168896e-05
4.200000000000000000e+01,3.426855683325223499e-05
4.225000000000000000e+01,3.473429460719833369e-05
4.250000000000000000e+01,3.520191058792587351e-05
4.275000000000000000e+01,3.567135656649751045e-05
4.300000000000000000e+01,3.614258427468803269e-05
4.325000000000000000e+01,3.661554540184464620e-05
4.350000000000000000e+01,3.709019161148369772e-05
4.375000000000000000e+01,3.756647455759645873e-05
4.400000000000000000e+01,3.804434590069749285e-05
4.425000000000000000e+01,3.852375732357040197e-05
4.450000000000000000e+01,3.900466054674766507e-05
4.475000000000000000e+01,3.948700734368944156e-05
4.500000000000000000e+01,3.997074955567761565e-05
4.525000000000000000e+01,4.045583910642155815e-05
4.550000000000000000e+01,4.094222801634991686e-05
4.575000000000000000e+01,4.142986841662634883e-05
4.600000000000000000e+01,4.191871256285757626e-05
4.625000000000000000e+01,4.240871284849542642e-05
4.650000000000000000e+01,4.289982181794930148e-05
4.675000000000000000e+01,4.339199217938731967e-05
4.700000000000000000e+01,4.388517681723787104e-05
4.725000000000000000e+01,4.437932880438722399e-05
4.750000000000000000e+01,4.487440141408027713e-05
4.775000000000000000e+01,4.537034813150093629e-05
4.800000000000000000e+01,4.586712266507646035e-05
4.825000000000000000e+01,4.636467895745012931e-05
4.850000000000000000e+01,4.686297119617508275e-05
4.875000000000000000e+01,4.736195382410019053e-05
4.900000000000000000e+01,4.786158154945263155e-05
4.925000000000000000e+01,4.836180935562612524e-05
4.950000000000000000e+01,4.886259251067034325e-05
4.975000000000000000e+01,4.936388657648885377e-05
5.000000000000000000e+01,4.986564741774430424e-05
5.025000000000000000e+01,5.036783121046821979e-05
5.050000000000000000e+01,5.087039445038056090e-05
5.075000000000000000e+01,5.137329396093228090e-05
5.100000000000000000e+01,5.187648690104979562e-05
5.125000000000000000e+01,5.237993077261149930e-05
5.150000000000000000e+01,5.288358342763480524e-05
5.175000000000000000e+01,5.338740307519006917e-05
5.200000000000000000e+01,5.389134828803940314e-05
5.225000000000000000e+01,5.439537800901123537e-05
5.250000000000000000e+01,5.489945155709975385e-05
5.275000000000000000e+01,5.540352863330015023e-05
5.300000000000000000e+01,5.590756932618671799e-05
5.325000000000000000e+01,5.641153411723817570e-05
5.350000000000000000e+01,5.691538388588627477e-05
5.375000000000000000e+01,5.741907991434470036e-05
5.400000000000000000e+01,5.792258389216800606e-05
5.425000000000000000e+01,5.842585792056858841e-05
5.450000000000000000e+01,5.892886451650541658e-05
5.475000000000000000e+01,5.943156661652769171e-05
5.500000000000000000e+01,5.993392758038229925e-05
5.525000000000000000e+01,6.043591119439716350e-05
5.550000000000000000e+01,6.093748167464459713e-05
5.575000000000000000e+01,6.143860366987548434e-05
5.600000000000000000e+01,6.193924226423111446e-05
5.625000000000000000e+01,6.243936297975422121e-05
5.650000000000000000e+01,6.293893177868777598e-05
5.675000000000000000e+01,6.343791506555335592e-05
5.700000000000000000e+01,6.393627968905066618e-05
5.725000000000000000e+01,6.443399294374711989e-05
5.750000000000000000e+01,6.493102257155651373e-05
5.775000000000000000e+01,6.542733676307078061e-05
5.800000000000000000e+01,6.592290415866088851e-05
5.825000000000000000e+01,6.641769384943099265e-05
5.850000000000000000e+01,6.691167537796009746e-05
5.875000000000000000e+01,6.740481873890583531e-05
5.900000000000000000e+01,6.789709437941719510e-05
5.925000000000000000e+01,6.838847319937216588e-05
5.950000000000000000e+01,6.887892655148539808e-05
5.975000000000000000e+01,6.936842624122944979e-05
6.000000000000000000e+01,6.985694452660412275e-05
6.025000000000000000e+01,7.034445411777618198e-05
6.050000000000000000e+01,7.083092817654407160e-05
6.075000000000000000e+01,7.131634031568014293e-05
6.100000000000000000e+01,7.180066459813102826e-05
6.125000000000000000e+01,7.228387553607575381e-05
6.150000000000000000e+01,7.276594808984638933e-05
6.175000000000000000e+01,7.324685766675205468e-05
6.200000000000000000e+01,7.372658011973605408e-05
6.225000000000000000e+01,7.420509174593991817e-05
6.250000000000000000e+01,7.468236928514940341e-05
6.275000000000000000e+01,7.515838991811774636e-05
6.300000000000000000e+01,7.563313126478070098e-05
6.325000000000000000e+01,7.610657138236147519e-05
6.350000000000000000e+01,7.657868876339824187e-05
6.375000000000000000e+01,7.704946233363268223e-05
6.400000000000000000e+01,7.751887144982325844e-05
6.425000000000000000e+01,7.798689589747706270e-05
6.450000000000000000e+01,7.845351588846760822e-05
6.475000000000000000e+01,7.891871205857580449e-05
6.500000000000000000e+01,7.938246546495716612e-05
6.525000000000000000e+01,7.984475758351870767e-05
6.550000000000000000e+01,8.030557030620926492e-05
6.575000000000000000e+01,8.076488593826400861e-05
6.600000000000000000e+01,8.122268719534831707e-05
6.625000000000000000e+01,8.167895720065207379e-05
6.650000000000000000e+01,8.213367948190603788e-05
6.675000000000000000e+01,8.258683796834519707e-05
6.700000000000000000e+01,8.303841698761692128e-05
6.725000000000000000e+01,8.348840126259976437e-05
6.750000000000000000e+01,8.393677590822366179e-05
6.775000000000000000e+01,8.438352642818788797e-05
6.800000000000000000e+01,8.482863871164309953e-05
6.825000000000000000e+01,8.527209902984766933e-05
6.850000000000000000e+01,8.571389403276659846e-05
6.875000000000000000e+01,8.615401074559952141e-05
6.900000000000000000e+01,8.659243656532935175e-05
6.925000000000000000e+01,8.702915925718466596e-05
6.950000000000000000e+01,8.746416695107889889e-05
6.975000000000000000e+01,8.789744813803362857e-05
7.000000000000000000e+01,8.832899166655782883e-05
7.025000000000000000e+01,8.875878673898790093e-05
7.050000000000000000e+01,8.918682290782861319e-05
7.075000000000000000e+01,8.961309007205899382e-05
7.100000000000000000e+01,9.003757847339790492e-05
7.125000000000000000e+01,9.046027869256640459e-05
7.150000000000000000e+01,9.088118164554888931e-05
7.175000000000000000e+01,9.130027857980223521e-05
7.200000000000000000e+01,9.171756107046397718e-05
7.225000000000000000e+01,9.213302101656986630e-05
7.250000000000000000e+01,9.254665063722678528e-05
7.275000000000000000e+01,9.295844246779119322e-05
7.300000000000000000e+01,9.336838935604327438e-05
7.325000000000000000e+01,9.377648445836448852e-05
7.350000000000000000e+01,9.418272123586881228e-05
7.375000000000000000e+01,9.458709345058542598e-05
7.400000000000000000e+01,9.498959516160322290e-05
7.425000000000000000e+01,9.539022072122792250e-05
7.450000000000000000e+01,9.578896477113097070e-05
7.475000000000000000e+01,9.618582223852570790e-05
7.500000000000000000e+01,9.658078833231679788e-05
7.525000000000000000e+01,9.697385853925854712e-05
7.550000000000000000e+01,9.736502862015956026e-05
7.575000000000000000e+01,9.775429460603600430e-05
7.600000000000000000e+01,9.814165279430952843e-05
7.625000000000000000e+01,9.852709974501343737e-05
7.650000000000000000e+01,9.891063227700473291e-05
7.675000000000000000e+01,9.929224746416952826e-05
7.700000000000000000e+01,9.967194263167885075e-05
7.725000000000000000e+01,1.000497153522332772e-04
7.750000000000000000e+01,1.004255634423126378e-04
7.775000000000000000e+01,1.007994849584757023e-04
7.800000000000000000e+01,1.011714781936518150e-04
7.825000000000000000e+01,1.015415416734398218e-04
7.850000000000000000e+01,1.019096741524585511e-04
7.875000000000000000e+01,1.022758746106938380e-04
7.900000000000000000e+01,1.026401422498649836e-04
7.925000000000000000e+01,1.030024764898102149e-04
7.950000000000000000e+01,1.033628769649179788e-04
7.975000000000000000e+01,1.037213435205449008e-04
8.000000000000000000e+01,1.040778762094744558e-04
8.025000000000000000e+01,1.044324752884081100e-04
8.050000000000000000e+01,1.047851412144570324e-04
8.075000000000000000e+01,1.051358746416674981e-04
8.100000000000000000e+01,1.054846764175854584e-04
8.125000000000000000e+01,1.058315475798301901e-04
8.150000000000000000e+01,1.061764893526860257e-04
8.175000000000000000e+01,1.065195031437457708e-04
8.200000000000000000e+01,1.068605905405632038e-04
8.225000000000000000e+01,1.071997533073314321e-04
8.250000000000000000e+01,1.075369933815906989e-04
8.275000000000000000e+01,1.078723128709783112e-04
8.300000000000000000e+01,1.082057140499862515e-04
8.325000000000000000e+01,1.085371993567490258e-04
8.350000000000000000e+01,1.088667713898840546e-04
8.375000000000000000e+01,1.091944329053276319e-04
8.400000000000000000e+01,1.095201868132199719e-04
8.425000000000000000e+01,1.098440361748204098e-04
8.450000000000000000e+01,1.101659841994479731e-04
8.475000000000000000e+01,1.104860342414407771e-04
8.500000000000000000e+01,1.108041897971647247e-04
8.525000000000000000e+01,1.111204545020512765e-04
8.550000000000000000e+01,1.114348321276373077e-04
8.575000000000000000e+01,1.117473265786741369e-04
8.600000000000000000e+01,1.120579418902457988e-04
8.625000000000000000e+01,1.123666822249148406e-04
8.650000000000000000e+01,1.126735518699103898e-04
8.675000000000000000e+01,1.129785552343491405e-04
8.700000000000000000e+01,1.132816968464678465e-04
8.725000000000000000e+01,1.135829813509052532e-04
8.750000000000000000e+01,1.138824135060155664e-04
8.775000000000000000e+01,1.141799981812002991e-04
8.800000000000000000e+01,1.144757403542721961e-04
8.825000000000000000e+01,1.147696451088746296e-04
8.850000000000000000e+01,1.150617176318961430e-04
8.875000000000000000e+01,1.153519632109379175e-04
8.900000000000000000e+01,1.156403872318110127e-04
8.925000000000000000e+01,1.159269951760637360e-04
8.950000000000000000e+01,1.162117926185268318e-04
8.975000000000000000e+01,1.164947852249109309e-04
9.000000000000000000e+01,1.167759787494205192e-04
